…
    ## Parsed with column specification:
    ## cols(
    ##   .default = col_double(),
    ##   day = col_character()
    ## )

    ## See spec(...) for full column specifications.

``` r
accel_df
```

    ## # A tibble: 50,400 x 6
    ##    week  day_id day    week_weekend minute activity_count
    ##    <fct> <fct>  <fct>  <fct>         <int>          <dbl>
    ##  1 1     1      Friday weekday           1           88.4
    ##  2 1     1      Friday weekday           2           82.2
    ##  3 1     1      Friday weekday           3           64.4
    ##  4 1     1      Friday weekday           4           70.0
    ##  5 1     1      Friday weekday           5           75.0
    ##  6 1     1      Friday weekday           6           66.3
    ##  7 1     1      Friday weekday           7           53.8
    ##  8 1     1      Friday weekday           8           47.8
    ##  9 1     1      Friday weekday           9           55.5
    ## 10 1     1      Friday weekday          10           43.0
    ## # … with 50,390 more rows
…
``` r
total_activity =
  accel_df %>%
  group_by(day_id) %>%
  summarize(daily_activity = sum(activity_count))
```

    ## `summarise()` ungrouping output (override with `.groups` argument)

``` r
total_activity
```

    ## # A tibble: 35 x 2
    ##    day_id daily_activity
    ##    <fct>           <dbl>
    ##  1 1             480543.
    ##  2 2              78828.
    ##  3 3             376254 
    ##  4 4             631105 
    ##  5 5             355924.
    ##  6 6             307094.
    ##  7 7             340115.
    ##  8 8             568839 
    ##  9 9             295431 
    ## 10 10            607175 
    ## # … with 25 more rows
…
``` r
ny_noaa = 
  ny_noaa %>% 
  separate(date, into = c("year", "month", "day")) %>%
  mutate(tmax  = as.numeric(tmax), tmin = as.numeric(tmin), prcp = as.double(prcp), snow = as.double(snow), snwd = as.double(snwd))

ny_noaa
```

    ## # A tibble: 2,595,176 x 9
    ##    id          year  month day    prcp  snow  snwd  tmax  tmin
    ##    <chr>       <chr> <chr> <chr> <dbl> <dbl> <dbl> <dbl> <dbl>
    ##  1 US1NYAB0001 2007  11    01       NA    NA    NA    NA    NA
    ##  2 US1NYAB0001 2007  11    02       NA    NA    NA    NA    NA
    ##  3 US1NYAB0001 2007  11    03       NA    NA    NA    NA    NA
    ##  4 US1NYAB0001 2007  11    04       NA    NA    NA    NA    NA
    ##  5 US1NYAB0001 2007  11    05       NA    NA    NA    NA    NA
    ##  6 US1NYAB0001 2007  11    06       NA    NA    NA    NA    NA
    ##  7 US1NYAB0001 2007  11    07       NA    NA    NA    NA    NA
    ##  8 US1NYAB0001 2007  11    08       NA    NA    NA    NA    NA
    ##  9 US1NYAB0001 2007  11    09       NA    NA    NA    NA    NA
    ## 10 US1NYAB0001 2007  11    10       NA    NA    NA    NA    NA
    ## # … with 2,595,166 more rows
…
